# This file uses centimeters as units for non-parametric coordinates.

g default
v 10.735595 -6.010189 -3.488206
v 9.132242 -6.010189 -6.634963
v 6.634963 -6.010189 -9.132242
v 3.488206 -6.010189 -10.735596
v -3.488207 -6.010189 -10.735596
v -6.634963 -6.010189 -9.132243
v -9.132243 -6.010189 -6.634964
v -10.735597 -6.010189 -3.488207
v -10.735597 -6.010189 3.488207
v -9.132244 -6.010189 6.634964
v -6.634964 -6.010189 9.132244
v -3.488207 -6.010189 10.735598
v 3.488207 -6.010189 10.735598
v 6.634964 -6.010189 9.132245
v 9.132246 -6.010189 6.634965
v 10.735600 -6.010189 3.488208
v 10.735595 6.010189 -3.488206
v 9.132242 6.010189 -6.634963
v 6.634963 6.010189 -9.132242
v 3.488206 6.010189 -10.735596
v -3.488207 6.010189 -10.735596
v -6.634963 6.010189 -9.132243
v -9.132243 6.010189 -6.634964
v -10.735597 6.010189 -3.488207
v -10.735597 6.010189 3.488207
v -9.132244 6.010189 6.634964
v -6.634964 6.010189 9.132244
v -3.488207 6.010189 10.735598
v 3.488207 6.010189 10.735598
v 6.634964 6.010189 9.132245
v 9.132246 6.010189 6.634965
v 10.735600 6.010189 3.488208
v 11.501195 6.010189 -3.736965
v 9.783501 6.010189 -7.108130
v 7.108130 6.010189 -9.783501
v 3.736965 6.010189 -11.501196
v -3.736965 6.010189 -11.501197
v -7.108131 6.010189 -9.783503
v -9.783503 6.010189 -7.108130
v -11.501197 6.010189 -3.736965
v -11.501198 6.010189 3.736966
v -9.783504 6.010189 7.108131
v -7.108131 6.010189 9.783504
v -3.736966 6.010189 11.501198
v 3.736966 6.010189 11.501199
v 7.108132 6.010189 9.783504
v 9.783504 6.010189 7.108132
v 11.501200 6.010189 3.736966
v 11.501195 -6.010189 -3.736965
v 9.783501 -6.010189 -7.108130
v 7.108130 -6.010189 -9.783501
v 3.736965 -6.010189 -11.501196
v -3.736965 -6.010189 -11.501197
v -7.108131 -6.010189 -9.783503
v -9.783503 -6.010189 -7.108130
v -11.501197 -6.010189 -3.736965
v -11.501198 -6.010189 3.736966
v -9.783504 -6.010189 7.108131
v -7.108131 -6.010189 9.783504
v -3.736966 -6.010189 11.501198
v 3.736966 -6.010189 11.501199
v 7.108132 -6.010189 9.783504
v 9.783504 -6.010189 7.108132
v 11.501200 -6.010189 3.736966
v -11.011835 6.010189 -1.744104
v -11.011835 -6.010189 -1.744104
v -11.797136 -6.010189 -1.868482
v -11.797136 6.010189 -1.868482
v -11.011835 6.010189 1.744103
v -11.011835 -6.010189 1.744103
v -11.797136 -6.010189 1.868483
v -11.797136 6.010189 1.868483
v -1.744104 6.010189 11.011837
v -1.744104 -6.010189 11.011837
v -1.868483 -6.010189 11.797136
v -1.868483 6.010189 11.797136
v 1.744103 6.010189 11.011837
v 1.744103 -6.010189 11.011837
v 1.868483 -6.010189 11.797137
v 1.868483 6.010189 11.797137
v 11.011835 6.010189 1.744104
v 11.011835 -6.010189 1.744104
v 11.797136 -6.010189 1.868483
v 11.797136 6.010189 1.868483
v 11.011833 6.010189 -1.744103
v 11.011833 -6.010189 -1.744103
v 11.797133 -6.010189 -1.868482
v 11.797133 6.010189 -1.868482
v 1.744103 6.010189 -11.011835
v 1.744103 -6.010189 -11.011835
v 1.868482 -6.010189 -11.797134
v 1.868482 6.010189 -11.797134
v -1.744103 6.010189 -11.011835
v -1.744103 -6.010189 -11.011835
v -1.868483 -6.010189 -11.797135
v -1.868483 6.010189 -11.797135
v 7.589984 -6.010189 -6.625631
v 6.625631 -6.010189 -7.589983
v 7.589984 6.010189 -6.625631
v 6.625631 6.010189 -7.589983
v -6.625631 -6.010189 -7.589985
v -7.589985 -6.010189 -6.625632
v -6.625631 6.010189 -7.589985
v -7.589985 6.010189 -6.625632
v -7.589986 -6.010189 6.625632
v -6.625632 -6.010189 7.589986
v -7.589986 6.010189 6.625632
v -6.625632 6.010189 7.589986
v 6.625634 -6.010189 7.589987
v 7.589987 -6.010189 6.625633
v 6.625634 6.010189 7.589987
v 7.589987 6.010189 6.625633
vt 0.050000 1.000000
vt 0.100000 1.000000
vt 0.150000 1.000000
vt 0.200000 1.000000
vt 0.300000 1.000000
vt 0.350000 1.000000
vt 0.400000 1.000000
vt 0.450000 1.000000
vt 0.550000 1.000000
vt 0.600000 1.000000
vt 0.650000 1.000000
vt 0.700000 1.000000
vt 0.800000 1.000000
vt 0.850000 1.000000
vt 0.900000 1.000000
vt 0.950000 1.000000
vt 0.050000 0.750000
vt 0.100000 0.750000
vt 0.150000 0.750000
vt 0.200000 0.750000
vt 0.300000 0.750000
vt 0.350000 0.750000
vt 0.400000 0.750000
vt 0.450000 0.750000
vt 0.550000 0.750000
vt 0.600000 0.750000
vt 0.650000 0.750000
vt 0.700000 0.750000
vt 0.800000 0.750000
vt 0.850000 0.750000
vt 0.900000 0.750000
vt 0.950000 0.750000
vt 0.050000 0.500000
vt 0.100000 0.500000
vt 0.150000 0.500000
vt 0.200000 0.500000
vt 0.300000 0.500000
vt 0.350000 0.500000
vt 0.400000 0.500000
vt 0.450000 0.500000
vt 0.550000 0.500000
vt 0.600000 0.500000
vt 0.650000 0.500000
vt 0.700000 0.500000
vt 0.800000 0.500000
vt 0.850000 0.500000
vt 0.900000 0.500000
vt 0.950000 0.500000
vt 0.050000 0.250000
vt 0.100000 0.250000
vt 0.150000 0.250000
vt 0.200000 0.250000
vt 0.300000 0.250000
vt 0.350000 0.250000
vt 0.400000 0.250000
vt 0.450000 0.250000
vt 0.550000 0.250000
vt 0.600000 0.250000
vt 0.650000 0.250000
vt 0.700000 0.250000
vt 0.800000 0.250000
vt 0.850000 0.250000
vt 0.900000 0.250000
vt 0.950000 0.250000
vt 0.050000 0.000000
vt 0.100000 0.000000
vt 0.150000 0.000000
vt 0.200000 0.000000
vt 0.300000 0.000000
vt 0.350000 0.000000
vt 0.400000 0.000000
vt 0.450000 0.000000
vt 0.550000 0.000000
vt 0.600000 0.000000
vt 0.650000 0.000000
vt 0.700000 0.000000
vt 0.800000 0.000000
vt 0.850000 0.000000
vt 0.900000 0.000000
vt 0.950000 0.000000
vt 0.475000 0.750000
vt 0.475000 0.000000
vt 0.475000 1.000000
vt 0.475000 0.250000
vt 0.475000 0.500000
vt 0.525000 0.750000
vt 0.525000 0.000000
vt 0.525000 1.000000
vt 0.525000 0.250000
vt 0.525000 0.500000
vt 0.725000 0.750000
vt 0.725000 0.000000
vt 0.725000 1.000000
vt 0.725000 0.250000
vt 0.725000 0.500000
vt 0.775000 0.750000
vt 0.775000 0.000000
vt 0.775000 1.000000
vt 0.775000 0.250000
vt 0.775000 0.500000
vt 0.975000 0.750000
vt 0.975000 0.000000
vt 0.975000 1.000000
vt 0.975000 0.250000
vt 0.975000 0.500000
vt 0.025000 0.750000
vt 0.025000 0.000000
vt 0.025000 1.000000
vt 0.025000 0.250000
vt 0.025000 0.500000
vt 0.225000 0.750000
vt 0.225000 0.000000
vt 0.225000 1.000000
vt 0.225000 0.250000
vt 0.225000 0.500000
vt 0.275000 0.750000
vt 0.275000 0.000000
vt 0.275000 1.000000
vt 0.275000 0.250000
vt 0.275000 0.500000
vt 0.150000 1.000000
vt 0.100000 1.000000
vt 0.100000 0.750000
vt 0.150000 0.750000
vt 0.400000 1.000000
vt 0.350000 1.000000
vt 0.350000 0.750000
vt 0.400000 0.750000
vt 0.650000 1.000000
vt 0.600000 1.000000
vt 0.600000 0.750000
vt 0.650000 0.750000
vt 0.900000 1.000000
vt 0.850000 1.000000
vt 0.850000 0.750000
vt 0.900000 0.750000
vn -0.891007 0.000000 0.453991
vn -0.933442 0.000000 0.358728
vn -0.933442 0.000000 0.358728
vn -0.891007 0.000000 0.453991
vn -0.707107 0.000000 0.707107
vn -0.707107 0.000000 0.707107
vn -0.707107 0.000000 0.707107
vn -0.707107 0.000000 0.707107
vn -0.358729 0.000000 0.933442
vn -0.453991 0.000000 0.891006
vn -0.453991 0.000000 0.891006
vn -0.358729 0.000000 0.933442
vn -0.156435 0.000000 0.987688
vn -0.156435 0.000000 0.987688
vn 0.453990 0.000000 0.891007
vn 0.358728 0.000000 0.933442
vn 0.358728 0.000000 0.933442
vn 0.453990 0.000000 0.891007
vn 0.707107 0.000000 0.707107
vn 0.707107 0.000000 0.707107
vn 0.707107 0.000000 0.707107
vn 0.707107 0.000000 0.707107
vn 0.933442 0.000000 0.358728
vn 0.891006 0.000000 0.453991
vn 0.891006 0.000000 0.453991
vn 0.933442 0.000000 0.358728
vn 0.987688 0.000000 0.156434
vn 0.987688 0.000000 0.156434
vn 0.891007 0.000000 -0.453990
vn 0.933442 0.000000 -0.358728
vn 0.933442 0.000000 -0.358728
vn 0.891007 0.000000 -0.453990
vn 0.707107 0.000000 -0.707107
vn 0.707107 0.000000 -0.707107
vn 0.707107 0.000000 -0.707107
vn 0.707107 0.000000 -0.707107
vn 0.358728 0.000000 -0.933442
vn 0.453991 0.000000 -0.891006
vn 0.453991 0.000000 -0.891006
vn 0.358728 0.000000 -0.933442
vn 0.156434 0.000000 -0.987688
vn 0.156434 0.000000 -0.987688
vn -0.453990 0.000000 -0.891007
vn -0.358728 0.000000 -0.933442
vn -0.358728 0.000000 -0.933442
vn -0.453990 0.000000 -0.891007
vn -0.707107 0.000000 -0.707106
vn -0.707107 0.000000 -0.707106
vn -0.707107 0.000000 -0.707106
vn -0.707107 0.000000 -0.707106
vn -0.933442 0.000000 -0.358728
vn -0.891006 0.000000 -0.453991
vn -0.891006 0.000000 -0.453991
vn -0.933442 0.000000 -0.358728
vn -0.987689 0.000000 -0.156433
vn -0.987689 0.000000 -0.156433
vn 0.000000 1.000000 0.000000
vn 0.000000 1.000000 -0.000000
vn 0.000000 1.000000 -0.000000
vn 0.000000 1.000000 0.000000
vn 0.000000 1.000000 0.000000
vn 0.000000 1.000000 0.000000
vn 0.000000 1.000000 0.000000
vn 0.000000 1.000000 0.000000
vn 0.000000 1.000000 0.000001
vn 0.000000 1.000000 0.000001
vn 0.000000 1.000000 -0.000000
vn 0.000000 1.000000 -0.000000
vn 0.000000 1.000000 0.000000
vn 0.000000 1.000000 -0.000000
vn 0.000000 1.000000 -0.000000
vn 0.000000 1.000000 -0.000000
vn 0.000000 1.000000 0.000000
vn 0.000000 1.000000 0.000000
vn 0.000000 1.000000 -0.000000
vn 0.000000 1.000000 -0.000000
vn 0.000000 1.000000 -0.000000
vn 0.000000 1.000000 0.000000
vn 0.000000 1.000000 0.000000
vn 0.000000 1.000000 -0.000000
vn 0.000000 1.000000 -0.000000
vn 0.000000 1.000000 -0.000000
vn 0.000000 1.000000 -0.000000
vn 0.000000 1.000000 -0.000000
vn 0.000000 1.000000 0.000000
vn 0.000000 1.000000 0.000000
vn 0.000000 1.000000 0.000000
vn 0.000000 1.000000 0.000000
vn 0.000000 1.000000 0.000000
vn 0.000000 1.000000 0.000000
vn 0.000000 1.000000 0.000000
vn 0.000000 1.000000 0.000000
vn 0.000000 1.000000 -0.000000
vn 0.000000 1.000000 -0.000000
vn 0.000000 1.000000 -0.000000
vn 0.000000 1.000000 -0.000000
vn 0.809017 0.000000 -0.587785
vn 0.933442 0.000000 -0.358728
vn 0.933442 0.000000 -0.358728
vn 0.809017 0.000000 -0.587785
vn 0.587785 0.000000 -0.809017
vn 0.587785 0.000000 -0.809017
vn 0.358728 0.000000 -0.933442
vn 0.358728 0.000000 -0.933442
vn 0.156435 0.000000 -0.987688
vn 0.156435 0.000000 -0.987688
vn -0.587785 0.000000 -0.809017
vn -0.358728 0.000000 -0.933442
vn -0.358728 0.000000 -0.933442
vn -0.587785 0.000000 -0.809017
vn -0.809017 0.000000 -0.587785
vn -0.809017 0.000000 -0.587785
vn -0.933442 0.000000 -0.358728
vn -0.933442 0.000000 -0.358728
vn -0.987688 0.000000 -0.156435
vn -0.987688 0.000000 -0.156435
vn -0.809017 0.000000 0.587785
vn -0.933442 0.000000 0.358728
vn -0.933442 0.000000 0.358728
vn -0.809017 0.000000 0.587785
vn -0.587785 0.000000 0.809017
vn -0.587785 0.000000 0.809017
vn -0.358728 0.000000 0.933442
vn -0.358728 0.000000 0.933442
vn -0.156435 0.000000 0.987688
vn -0.156435 0.000000 0.987688
vn 0.587785 0.000000 0.809017
vn 0.358728 0.000000 0.933442
vn 0.358728 0.000000 0.933442
vn 0.587785 0.000000 0.809017
vn 0.809017 0.000000 0.587785
vn 0.809017 0.000000 0.587785
vn 0.933442 0.000000 0.358728
vn 0.933442 0.000000 0.358728
vn 0.987689 0.000000 0.156433
vn 0.987689 0.000000 0.156433
vn 0.000000 -1.000000 0.000000
vn 0.000000 -1.000000 0.000000
vn 0.000000 -1.000000 0.000000
vn 0.000000 -1.000000 0.000000
vn 0.000000 -1.000000 0.000000
vn 0.000000 -1.000000 0.000000
vn 0.000000 -1.000000 0.000000
vn 0.000000 -1.000000 0.000000
vn 0.000000 -1.000000 0.000000
vn 0.000000 -1.000000 0.000000
vn 0.000000 -1.000000 -0.000000
vn 0.000000 -1.000000 0.000000
vn 0.000000 -1.000000 -0.000000
vn 0.000000 -1.000000 -0.000000
vn 0.000000 -1.000000 -0.000000
vn 0.000000 -1.000000 -0.000000
vn 0.000000 -1.000000 0.000000
vn 0.000000 -1.000000 0.000000
vn 0.000000 -1.000000 0.000000
vn 0.000000 -1.000000 0.000000
vn 0.000000 -1.000000 -0.000000
vn 0.000000 -1.000000 -0.000000
vn 0.000000 -1.000000 -0.000000
vn 0.000000 -1.000000 -0.000000
vn 0.000000 -1.000000 -0.000000
vn 0.000000 -1.000000 -0.000000
vn 0.000000 -1.000000 -0.000000
vn 0.000000 -1.000000 -0.000000
vn 0.000000 -1.000000 0.000000
vn 0.000000 -1.000000 0.000000
vn 0.000000 -1.000000 0.000000
vn 0.000000 -1.000000 0.000000
vn 0.000000 -1.000000 0.000000
vn 0.000000 -1.000000 0.000000
vn 0.000000 -1.000000 -0.000000
vn 0.000000 -1.000000 -0.000000
vn 0.000000 -1.000000 -0.000000
vn 0.000000 -1.000000 -0.000000
vn 0.000000 -1.000000 0.000000
vn 0.000000 -1.000000 0.000000
vn 0.987688 0.000000 -0.156434
vn 0.987688 0.000000 -0.156434
vn 0.000000 -1.000000 0.000000
vn 0.000000 -1.000000 0.000000
vn -0.987688 0.000000 0.156434
vn -0.987688 0.000000 0.156434
vn 0.000000 1.000000 0.000000
vn 0.000000 1.000000 0.000000
vn -0.156434 0.000000 -0.987688
vn -0.156434 0.000000 -0.987688
vn 0.000000 -1.000000 0.000000
vn 0.000000 -1.000000 0.000000
vn 0.156434 0.000000 0.987688
vn 0.156434 0.000000 0.987688
vn 0.000000 1.000000 0.000000
vn 0.000000 1.000000 0.000000
vn -0.987688 0.000000 0.156434
vn -0.987688 0.000000 0.156434
vn 0.000000 -1.000000 0.000000
vn 0.000000 -1.000000 0.000000
vn 0.987688 0.000000 -0.156434
vn 0.987688 0.000000 -0.156434
vn 0.000000 1.000000 -0.000000
vn 0.000000 1.000000 -0.000000
vn 0.156435 0.000000 0.987688
vn 0.156435 0.000000 0.987688
vn 0.000000 -1.000000 0.000000
vn 0.000000 -1.000000 0.000000
vn -0.156435 0.000000 -0.987688
vn -0.156435 0.000000 -0.987688
vn 0.000000 1.000000 0.000000
vn 0.000000 1.000000 0.000000
vn 0.987688 0.000000 0.156434
vn 0.987688 0.000000 0.156434
vn 0.987688 0.000000 0.156434
vn 0.987688 0.000000 0.156434
vn -0.156435 0.000000 -0.987688
vn -0.156435 0.000000 -0.987688
vn -0.156435 0.000000 -0.987688
vn -0.156435 0.000000 -0.987688
vn -0.156434 0.000000 0.987689
vn -0.156434 0.000000 0.987689
vn -0.156434 0.000000 0.987689
vn -0.156434 0.000000 0.987689
vn 0.987688 0.000000 -0.156435
vn 0.987688 0.000000 -0.156435
vn 0.987688 0.000000 -0.156435
vn 0.987688 0.000000 -0.156435
vn 0.156434 0.000000 -0.987688
vn 0.156434 0.000000 -0.987688
vn 0.156434 0.000000 -0.987688
vn 0.156434 0.000000 -0.987688
vn 0.156434 0.000000 0.987688
vn 0.156434 0.000000 0.987688
vn 0.156434 0.000000 0.987688
vn 0.156434 0.000000 0.987688
vn -0.987688 0.000000 -0.156435
vn -0.987688 0.000000 -0.156435
vn -0.987688 0.000000 -0.156435
vn -0.987688 0.000000 -0.156435
vn -0.987688 0.000000 0.156435
vn -0.987688 0.000000 0.156435
vn -0.987688 0.000000 0.156435
vn -0.987688 0.000000 0.156435
vn 0.000000 -1.000000 0.000000
vn 0.000000 -1.000000 0.000000
vn 0.006051 0.000000 0.999982
vn 0.006051 0.000000 0.999982
vn 0.006051 0.000000 0.999982
vn 0.006051 0.000000 0.999982
vn 0.000000 1.000000 0.000000
vn 0.000000 1.000000 0.000000
vn -0.999982 0.000000 -0.006051
vn -0.999982 0.000000 -0.006051
vn -0.999982 0.000000 -0.006051
vn -0.999982 0.000000 -0.006051
vn 0.000000 -1.000000 0.000000
vn 0.000000 -1.000000 0.000000
vn 0.999982 0.000000 -0.006051
vn 0.999982 0.000000 -0.006051
vn 0.999982 0.000000 -0.006051
vn 0.999982 0.000000 -0.006051
vn 0.000000 1.000000 0.000000
vn 0.000000 1.000000 0.000000
vn -0.006050 0.000000 0.999982
vn -0.006050 0.000000 0.999982
vn -0.006050 0.000000 0.999982
vn -0.006050 0.000000 0.999982
vn 0.000000 -1.000000 -0.000000
vn 0.000000 -1.000000 -0.000000
vn -0.006050 0.000000 -0.999982
vn -0.006050 0.000000 -0.999982
vn -0.006050 0.000000 -0.999982
vn -0.006050 0.000000 -0.999982
vn 0.000000 1.000000 -0.000000
vn 0.000000 1.000000 -0.000000
vn 0.999982 0.000000 0.006051
vn 0.999982 0.000000 0.006051
vn 0.999982 0.000000 0.006051
vn 0.999982 0.000000 0.006051
vn 0.000000 -1.000000 -0.000000
vn 0.000000 -1.000000 -0.000000
vn -0.999982 0.000000 0.006050
vn -0.999982 0.000000 0.006050
vn -0.999982 0.000000 0.006050
vn -0.999982 0.000000 0.006050
vn 0.000000 1.000000 -0.000000
vn 0.000000 1.000000 -0.000000
vn 0.006050 0.000000 -0.999982
vn 0.006050 0.000000 -0.999982
vn 0.006050 0.000000 -0.999982
vn 0.006050 0.000000 -0.999982
s 1
g pPipe30
f 2/2/1 1/1/2 17/17/3 18/18/4
s off
f 98/121/5 97/122/6 99/123/7 100/124/8
s 2
f 4/4/9 3/3/10 19/19/11 20/20/12
f 90/113/13 4/4/9 20/20/12 89/111/14
s 3
f 6/6/15 5/5/16 21/21/17 22/22/18
s off
f 102/125/19 101/126/20 103/127/21 104/128/22
s 4
f 8/8/23 7/7/24 23/23/25 24/24/26
f 66/83/27 8/8/23 24/24/26 65/81/28
s 5
f 10/10/29 9/9/30 25/25/31 26/26/32
s off
f 106/129/33 105/130/34 107/131/35 108/132/36
s 6
f 12/12/37 11/11/38 27/27/39 28/28/40
f 74/93/41 12/12/37 28/28/40 73/91/42
s 7
f 14/14/43 13/13/44 29/29/45 30/30/46
s off
f 110/133/47 109/134/48 111/135/49 112/136/50
s 8
f 16/16/51 15/15/52 31/31/53 32/32/54
f 82/103/55 16/16/51 32/32/54 81/101/56
s 9
f 18/18/57 17/17/58 33/33/59 34/34/60
f 19/19/61 18/18/57 34/34/60 35/35/62
f 20/20/63 19/19/61 35/35/62 36/36/64
f 92/115/65 89/111/66 20/20/63 36/36/64
s 10
f 22/22/67 21/21/68 37/37/69 38/38/70
f 23/23/71 22/22/67 38/38/70 39/39/72
f 24/24/73 23/23/71 39/39/72 40/40/74
f 68/85/75 65/81/76 24/24/73 40/40/74
s 11
f 26/26/77 25/25/78 41/41/79 42/42/80
f 27/27/81 26/26/77 42/42/80 43/43/82
f 28/28/83 27/27/81 43/43/82 44/44/84
f 76/95/85 73/91/86 28/28/83 44/44/84
s 12
f 30/30/87 29/29/88 45/45/89 46/46/90
f 31/31/91 30/30/87 46/46/90 47/47/92
f 32/32/93 31/31/91 47/47/92 48/48/94
f 84/105/95 81/101/96 32/32/93 48/48/94
s 13
f 34/34/97 33/33/98 49/49/99 50/50/100
f 35/35/101 34/34/97 50/50/100 51/51/102
f 36/36/103 35/35/101 51/51/102 52/52/104
f 92/115/105 36/36/103 52/52/104 91/114/106
s 14
f 38/38/107 37/37/108 53/53/109 54/54/110
f 39/39/111 38/38/107 54/54/110 55/55/112
f 40/40/113 39/39/111 55/55/112 56/56/114
f 68/85/115 40/40/113 56/56/114 67/84/116
s 15
f 42/42/117 41/41/118 57/57/119 58/58/120
f 43/43/121 42/42/117 58/58/120 59/59/122
f 44/44/123 43/43/121 59/59/122 60/60/124
f 76/95/125 44/44/123 60/60/124 75/94/126
s 16
f 46/46/127 45/45/128 61/61/129 62/62/130
f 47/47/131 46/46/127 62/62/130 63/63/132
f 48/48/133 47/47/131 63/63/132 64/64/134
f 84/105/135 48/48/133 64/64/134 83/104/136
s 17
f 50/50/137 49/49/138 1/65/139 2/66/140
f 51/51/141 50/50/137 2/66/140 3/67/142
f 52/52/143 51/51/141 3/67/142 4/68/144
f 91/114/145 52/52/143 4/68/144 90/112/146
s 18
f 54/54/147 53/53/148 5/69/149 6/70/150
f 55/55/151 54/54/147 6/70/150 7/71/152
f 56/56/153 55/55/151 7/71/152 8/72/154
f 67/84/155 56/56/153 8/72/154 66/82/156
s 19
f 58/58/157 57/57/158 9/73/159 10/74/160
f 59/59/161 58/58/157 10/74/160 11/75/162
f 60/60/163 59/59/161 11/75/162 12/76/164
f 75/94/165 60/60/163 12/76/164 74/92/166
s 20
f 62/62/167 61/61/168 13/77/169 14/78/170
f 63/63/171 62/62/167 14/78/170 15/79/172
f 64/64/173 63/63/171 15/79/172 16/80/174
f 83/104/175 64/64/173 16/80/174 82/102/176
s 5
f 9/9/30 70/88/177 69/86/178 25/25/31
s 19
f 57/57/158 71/89/179 70/87/180 9/73/159
s 15
f 41/41/118 72/90/181 71/89/182 57/57/119
s 11
f 25/25/78 69/86/183 72/90/184 41/41/79
s 7
f 13/13/44 78/98/185 77/96/186 29/29/45
s 20
f 61/61/168 79/99/187 78/97/188 13/77/169
s 16
f 45/45/128 80/100/189 79/99/190 61/61/129
s 12
f 29/29/88 77/96/191 80/100/192 45/45/89
s 1
f 1/1/2 86/108/193 85/106/194 17/17/3
s 17
f 49/49/138 87/109/195 86/107/196 1/65/139
s 13
f 33/33/98 88/110/197 87/109/198 49/49/99
s 9
f 17/17/58 85/106/199 88/110/200 33/33/59
s 3
f 5/5/16 94/118/201 93/116/202 21/21/17
s 18
f 53/53/148 95/119/203 94/117/204 5/69/149
s 14
f 37/37/108 96/120/205 95/119/206 53/53/109
s 10
f 21/21/68 93/116/207 96/120/208 37/37/69
s off
f 74/93/209 73/91/210 76/95/211 75/94/212
f 70/87/213 71/89/214 72/90/215 69/86/216
f 66/83/217 65/81/218 68/85/219 67/84/220
f 94/117/221 95/119/222 96/120/223 93/116/224
f 82/103/225 81/101/226 84/105/227 83/104/228
f 86/107/229 87/109/230 88/110/231 85/106/232
f 90/113/233 89/111/234 92/115/235 91/114/236
f 78/97/237 79/99/238 80/100/239 77/96/240
s 17
f 3/3/142 2/2/140 97/122/241 98/121/242
s off
f 2/2/243 18/18/244 99/123/245 97/122/246
s 9
f 18/18/57 19/19/61 100/124/247 99/123/248
s off
f 19/19/249 3/3/250 98/121/251 100/124/252
s 18
f 7/7/152 6/6/150 101/126/253 102/125/254
s off
f 6/6/255 22/22/256 103/127/257 101/126/258
s 10
f 22/22/67 23/23/71 104/128/259 103/127/260
s off
f 23/23/261 7/7/262 102/125/263 104/128/264
s 19
f 11/11/162 10/10/160 105/130/265 106/129/266
s off
f 10/10/267 26/26/268 107/131/269 105/130/270
s 11
f 26/26/77 27/27/81 108/132/271 107/131/272
s off
f 27/27/273 11/11/274 106/129/275 108/132/276
s 20
f 15/15/172 14/14/170 109/134/277 110/133/278
s off
f 14/14/279 30/30/280 111/135/281 109/134/282
s 12
f 30/30/87 31/31/91 112/136/283 111/135/284
s off
f 31/31/285 15/15/286 110/133/287 112/136/288
g default
v 8.872465 -19.436295 4.956864
v 9.969971 -19.436295 1.972515
v 10.091546 -19.436295 -1.204917
v 9.225292 -19.436295 -4.264404
v 4.956864 -19.436295 -8.872466
v 1.972515 -19.436295 -9.969971
v -1.204917 -19.436295 -10.091547
v -4.264404 -19.436295 -9.225293
v -8.872466 -19.436295 -4.956865
v -9.969973 -19.436295 -1.972515
v -10.091548 -19.436295 1.204917
v -9.225294 -19.436295 4.264404
v -4.956865 -19.436295 8.872467
v -1.972516 -19.436295 9.969974
v 1.204917 -19.436295 10.091550
v 4.264405 -19.436295 9.225295
v 8.872465 19.436295 4.956864
v 9.969971 19.436295 1.972515
v 10.091546 19.436295 -1.204917
v 9.225292 19.436295 -4.264404
v 4.956864 19.436295 -8.872466
v 1.972515 19.436295 -9.969971
v -1.204917 19.436295 -10.091547
v -4.264404 19.436295 -9.225293
v -8.872466 19.436295 -4.956865
v -9.969973 19.436295 -1.972515
v -10.091548 19.436295 1.204917
v -9.225294 19.436295 4.264404
v -4.956865 19.436295 8.872467
v -1.972516 19.436295 9.969974
v 1.204917 19.436295 10.091550
v 4.264405 19.436295 9.225295
v 9.505198 19.436295 5.310358
v 10.680971 19.436295 2.113183
v 10.811217 19.436295 -1.290844
v 9.883186 19.436295 -4.568516
v 5.310359 19.436295 -9.505199
v 2.113184 19.436295 -10.680973
v -1.290845 19.436295 -10.811218
v -4.568517 19.436295 -9.883187
v -9.505200 19.436295 -5.310360
v -10.680974 19.436295 -2.113184
v -10.811220 19.436295 1.290845
v -9.883188 19.436295 4.568517
v -5.310360 19.436295 9.505200
v -2.113184 19.436295 10.680975
v 1.290845 19.436295 10.811221
v 4.568518 19.436295 9.883189
v 9.505198 -19.436295 5.310358
v 10.680971 -19.436295 2.113183
v 10.811217 -19.436295 -1.290844
v 9.883186 -19.436295 -4.568516
v 5.310359 -19.436295 -9.505199
v 2.113184 -19.436295 -10.680973
v -1.290845 -19.436295 -10.811218
v -4.568517 -19.436295 -9.883187
v -9.505200 -19.436295 -5.310360
v -10.680974 -19.436295 -2.113184
v -10.811220 -19.436295 1.290845
v -9.883188 -19.436295 4.568517
v -5.310360 -19.436295 9.505200
v -2.113184 -19.436295 10.680975
v 1.290845 -19.436295 10.811221
v 4.568518 -19.436295 9.883189
v -5.585432 19.436295 -8.340647
v -5.585432 -19.436295 -8.340647
v -5.983754 -19.436295 -8.935454
v -5.983754 19.436295 -8.935454
v -7.889464 19.436295 -6.206433
v -7.889464 -19.436295 -6.206433
v -8.452095 -19.436295 -6.649040
v -8.452095 19.436295 -6.649040
v -8.340648 19.436295 5.585433
v -8.340648 -19.436295 5.585433
v -8.935454 -19.436295 5.983754
v -8.935454 19.436295 5.983754
v -6.206434 19.436295 7.889465
v -6.206434 -19.436295 7.889465
v -6.649041 -19.436295 8.452096
v -6.649041 19.436295 8.452096
v 5.585432 19.436295 8.340647
v 5.585432 -19.436295 8.340647
v 5.983754 -19.436295 8.935454
v 5.983754 19.436295 8.935454
v 7.889462 19.436295 6.206432
v 7.889462 -19.436295 6.206432
v 8.452093 -19.436295 6.649038
v 8.452093 19.436295 6.649038
v 8.340647 19.436295 -5.585433
v 8.340647 -19.436295 -5.585433
v 8.935453 -19.436295 -5.983753
v 8.935453 19.436295 -5.983753
v 6.206433 19.436295 -7.889464
v 6.206433 -19.436295 -7.889464
v 6.649040 -19.436295 -8.452094
v 6.649040 19.436295 -8.452094
v 9.020196 -19.436295 0.959532
v 9.067144 -19.436295 -0.267470
v 9.020196 19.436295 0.959532
v 9.067144 19.436295 -0.267470
v 0.959532 -19.436295 -9.020197
v -0.267470 -19.436295 -9.067145
v 0.959532 19.436295 -9.020197
v -0.267470 19.436295 -9.067145
v -9.020199 -19.436295 -0.959532
v -9.067146 -19.436295 0.267470
v -9.020199 19.436295 -0.959532
v -9.067146 19.436295 0.267470
v -0.959532 -19.436295 9.020200
v 0.267470 -19.436295 9.067148
v -0.959532 19.436295 9.020200
v 0.267470 19.436295 9.067148
vt 0.050000 1.000000
vt 0.100000 1.000000
vt 0.150000 1.000000
vt 0.200000 1.000000
vt 0.300000 1.000000
vt 0.350000 1.000000
vt 0.400000 1.000000
vt 0.450000 1.000000
vt 0.550000 1.000000
vt 0.600000 1.000000
vt 0.650000 1.000000
vt 0.700000 1.000000
vt 0.800000 1.000000
vt 0.850000 1.000000
vt 0.900000 1.000000
vt 0.950000 1.000000
vt 0.050000 0.750000
vt 0.100000 0.750000
vt 0.150000 0.750000
vt 0.200000 0.750000
vt 0.300000 0.750000
vt 0.350000 0.750000
vt 0.400000 0.750000
vt 0.450000 0.750000
vt 0.550000 0.750000
vt 0.600000 0.750000
vt 0.650000 0.750000
vt 0.700000 0.750000
vt 0.800000 0.750000
vt 0.850000 0.750000
vt 0.900000 0.750000
vt 0.950000 0.750000
vt 0.050000 0.500000
vt 0.100000 0.500000
vt 0.150000 0.500000
vt 0.200000 0.500000
vt 0.300000 0.500000
vt 0.350000 0.500000
vt 0.400000 0.500000
vt 0.450000 0.500000
vt 0.550000 0.500000
vt 0.600000 0.500000
vt 0.650000 0.500000
vt 0.700000 0.500000
vt 0.800000 0.500000
vt 0.850000 0.500000
vt 0.900000 0.500000
vt 0.950000 0.500000
vt 0.050000 0.250000
vt 0.100000 0.250000
vt 0.150000 0.250000
vt 0.200000 0.250000
vt 0.300000 0.250000
vt 0.350000 0.250000
vt 0.400000 0.250000
vt 0.450000 0.250000
vt 0.550000 0.250000
vt 0.600000 0.250000
vt 0.650000 0.250000
vt 0.700000 0.250000
vt 0.800000 0.250000
vt 0.850000 0.250000
vt 0.900000 0.250000
vt 0.950000 0.250000
vt 0.050000 0.000000
vt 0.100000 0.000000
vt 0.150000 0.000000
vt 0.200000 0.000000
vt 0.300000 0.000000
vt 0.350000 0.000000
vt 0.400000 0.000000
vt 0.450000 0.000000
vt 0.550000 0.000000
vt 0.600000 0.000000
vt 0.650000 0.000000
vt 0.700000 0.000000
vt 0.800000 0.000000
vt 0.850000 0.000000
vt 0.900000 0.000000
vt 0.950000 0.000000
vt 0.475000 0.750000
vt 0.475000 0.000000
vt 0.475000 1.000000
vt 0.475000 0.250000
vt 0.475000 0.500000
vt 0.525000 0.750000
vt 0.525000 0.000000
vt 0.525000 1.000000
vt 0.525000 0.250000
vt 0.525000 0.500000
vt 0.725000 0.750000
vt 0.725000 0.000000
vt 0.725000 1.000000
vt 0.725000 0.250000
vt 0.725000 0.500000
vt 0.775000 0.750000
vt 0.775000 0.000000
vt 0.775000 1.000000
vt 0.775000 0.250000
vt 0.775000 0.500000
vt 0.975000 0.750000
vt 0.975000 0.000000
vt 0.975000 1.000000
vt 0.975000 0.250000
vt 0.975000 0.500000
vt 0.025000 0.750000
vt 0.025000 0.000000
vt 0.025000 1.000000
vt 0.025000 0.250000
vt 0.025000 0.500000
vt 0.225000 0.750000
vt 0.225000 0.000000
vt 0.225000 1.000000
vt 0.225000 0.250000
vt 0.225000 0.500000
vt 0.275000 0.750000
vt 0.275000 0.000000
vt 0.275000 1.000000
vt 0.275000 0.250000
vt 0.275000 0.500000
vt 0.150000 1.000000
vt 0.100000 1.000000
vt 0.100000 0.750000
vt 0.150000 0.750000
vt 0.400000 1.000000
vt 0.350000 1.000000
vt 0.350000 0.750000
vt 0.400000 0.750000
vt 0.650000 1.000000
vt 0.600000 1.000000
vt 0.600000 0.750000
vt 0.650000 0.750000
vt 0.900000 1.000000
vt 0.850000 1.000000
vt 0.850000 0.750000
vt 0.900000 0.750000
vn -0.938546 0.000000 -0.345154
vn -0.897496 0.000000 -0.441022
vn -0.897496 0.000000 -0.441022
vn -0.938546 0.000000 -0.345154
vn -0.999269 0.000000 -0.038234
vn -0.999269 0.000000 -0.038234
vn -0.999269 0.000000 -0.038234
vn -0.999269 0.000000 -0.038234
vn -0.928572 0.000000 0.371152
vn -0.962176 0.000000 0.272428
vn -0.962176 0.000000 0.272428
vn -0.928572 0.000000 0.371152
vn -0.830899 0.000000 0.556423
vn -0.830899 0.000000 0.556423
vn -0.345154 0.000000 0.938546
vn -0.441021 0.000000 0.897497
vn -0.441021 0.000000 0.897497
vn -0.345154 0.000000 0.938546
vn -0.038234 0.000000 0.999269
vn -0.038234 0.000000 0.999269
vn -0.038234 0.000000 0.999269
vn -0.038234 0.000000 0.999269
vn 0.371152 0.000000 0.928572
vn 0.272428 0.000000 0.962176
vn 0.272428 0.000000 0.962176
vn 0.371152 0.000000 0.928572
vn 0.556424 0.000000 0.830899
vn 0.556424 0.000000 0.830899
vn 0.938546 0.000000 0.345154
vn 0.897496 0.000000 0.441022
vn 0.897496 0.000000 0.441022
vn 0.938546 0.000000 0.345154
vn 0.999269 0.000000 0.038234
vn 0.999269 0.000000 0.038234
vn 0.999269 0.000000 0.038234
vn 0.999269 0.000000 0.038234
vn 0.928572 0.000000 -0.371152
vn 0.962176 0.000000 -0.272428
vn 0.962176 0.000000 -0.272428
vn 0.928572 0.000000 -0.371152
vn 0.830899 0.000000 -0.556423
vn 0.830899 0.000000 -0.556423
vn 0.345154 0.000000 -0.938546
vn 0.441022 0.000000 -0.897496
vn 0.441022 0.000000 -0.897496
vn 0.345154 0.000000 -0.938546
vn 0.038234 0.000000 -0.999269
vn 0.038234 0.000000 -0.999269
vn 0.038234 0.000000 -0.999269
vn 0.038234 0.000000 -0.999269
vn -0.371153 0.000000 -0.928572
vn -0.272428 0.000000 -0.962176
vn -0.272428 0.000000 -0.962176
vn -0.371153 0.000000 -0.928572
vn -0.556425 0.000000 -0.830898
vn -0.556425 0.000000 -0.830898
vn -0.000000 1.000000 0.000000
vn 0.000000 1.000000 -0.000000
vn 0.000000 1.000000 -0.000000
vn -0.000000 1.000000 0.000000
vn -0.000001 1.000000 0.000001
vn -0.000001 1.000000 0.000001
vn -0.000001 1.000000 0.000001
vn -0.000001 1.000000 0.000001
vn -0.000002 1.000000 0.000002
vn -0.000002 1.000000 0.000002
vn 0.000000 1.000000 -0.000000
vn 0.000000 1.000000 -0.000000
vn 0.000000 1.000000 0.000000
vn 0.000001 1.000000 -0.000001
vn 0.000000 1.000000 -0.000000
vn 0.000000 1.000000 -0.000000
vn -0.000000 1.000000 0.000000
vn -0.000000 1.000000 0.000000
vn 0.000000 1.000000 -0.000000
vn 0.000000 1.000000 -0.000000
vn 0.000001 1.000000 -0.000001
vn -0.000000 1.000000 0.000000
vn -0.000000 1.000000 0.000000
vn 0.000001 1.000000 -0.000001
vn 0.000001 1.000000 -0.000001
vn 0.000001 1.000000 -0.000001
vn 0.000001 1.000000 -0.000001
vn 0.000001 1.000000 -0.000001
vn 0.000000 1.000000 0.000000
vn 0.000000 1.000000 0.000000
vn -0.000001 1.000000 0.000001
vn -0.000001 1.000000 0.000001
vn -0.000001 1.000000 0.000001
vn -0.000001 1.000000 0.000001
vn -0.000000 1.000000 0.000000
vn -0.000000 1.000000 0.000000
vn 0.000000 1.000000 -0.000000
vn 0.000000 1.000000 -0.000000
vn 0.000000 1.000000 -0.000000
vn 0.000000 1.000000 -0.000000
vn 0.980985 0.000000 0.194084
vn 0.897496 0.000000 0.441022
vn 0.897496 0.000000 0.441022
vn 0.980985 0.000000 0.194084
vn 0.992947 0.000000 -0.118557
vn 0.992947 0.000000 -0.118557
vn 0.928572 0.000000 -0.371152
vn 0.928572 0.000000 -0.371152
vn 0.830899 0.000000 -0.556423
vn 0.830899 0.000000 -0.556423
vn 0.194084 0.000000 -0.980985
vn 0.441022 0.000000 -0.897496
vn 0.441022 0.000000 -0.897496
vn 0.194084 0.000000 -0.980985
vn -0.118557 0.000000 -0.992947
vn -0.118557 0.000000 -0.992947
vn -0.371152 0.000000 -0.928572
vn -0.371152 0.000000 -0.928572
vn -0.556423 0.000000 -0.830899
vn -0.556423 0.000000 -0.830899
vn -0.980985 0.000000 -0.194084
vn -0.897496 0.000000 -0.441022
vn -0.897496 0.000000 -0.441022
vn -0.980985 0.000000 -0.194084
vn -0.992947 0.000000 0.118557
vn -0.992947 0.000000 0.118557
vn -0.928572 0.000000 0.371152
vn -0.928572 0.000000 0.371152
vn -0.830899 0.000000 0.556423
vn -0.830899 0.000000 0.556423
vn -0.194084 0.000000 0.980985
vn -0.441022 0.000000 0.897496
vn -0.441022 0.000000 0.897496
vn -0.194084 0.000000 0.980985
vn 0.118557 0.000000 0.992947
vn 0.118557 0.000000 0.992947
vn 0.371152 0.000000 0.928572
vn 0.371152 0.000000 0.928572
vn 0.556424 0.000000 0.830898
vn 0.556424 0.000000 0.830898
vn -0.000000 -1.000000 0.000000
vn -0.000000 -1.000000 0.000000
vn -0.000000 -1.000000 0.000000
vn -0.000000 -1.000000 0.000000
vn -0.000001 -1.000000 0.000001
vn -0.000001 -1.000000 0.000001
vn -0.000001 -1.000000 0.000001
vn -0.000001 -1.000000 0.000001
vn -0.000001 -1.000000 0.000001
vn -0.000001 -1.000000 0.000001
vn 0.000001 -1.000000 -0.000001
vn -0.000000 -1.000000 0.000000
vn 0.000000 -1.000000 -0.000000
vn 0.000000 -1.000000 -0.000000
vn 0.000000 -1.000000 -0.000000
vn 0.000000 -1.000000 -0.000000
vn -0.000000 -1.000000 0.000000
vn -0.000000 -1.000000 0.000000
vn 0.000000 -1.000000 0.000000
vn 0.000000 -1.000000 0.000000
vn 0.000000 -1.000000 -0.000000
vn 0.000000 -1.000000 -0.000000
vn 0.000000 -1.000000 -0.000000
vn 0.000000 -1.000000 -0.000000
vn 0.000001 -1.000000 -0.000001
vn 0.000001 -1.000000 -0.000001
vn 0.000001 -1.000000 -0.000000
vn 0.000001 -1.000000 -0.000000
vn -0.000001 -1.000000 0.000001
vn -0.000001 -1.000000 0.000001
vn -0.000001 -1.000000 0.000001
vn -0.000001 -1.000000 0.000001
vn -0.000001 -1.000000 0.000001
vn -0.000000 -1.000000 0.000000
vn 0.000000 -1.000000 -0.000000
vn 0.000000 -1.000000 -0.000000
vn 0.000000 -1.000000 -0.000000
vn 0.000000 -1.000000 -0.000000
vn 0.000000 -1.000000 0.000000
vn 0.000000 -1.000000 0.000000
vn 0.785952 0.000000 0.618288
vn 0.785952 0.000000 0.618288
vn 0.000000 -1.000000 0.000000
vn 0.000000 -1.000000 0.000000
vn -0.785952 0.000000 -0.618288
vn -0.785952 0.000000 -0.618288
vn -0.000001 1.000000 0.000001
vn -0.000001 1.000000 0.000001
vn 0.618288 0.000000 -0.785952
vn 0.618288 0.000000 -0.785952
vn -0.000001 -1.000000 0.000001
vn -0.000001 -1.000000 0.000001
vn -0.618288 0.000000 0.785952
vn -0.618288 0.000000 0.785952
vn -0.000001 1.000000 0.000001
vn -0.000001 1.000000 0.000001
vn -0.785952 0.000000 -0.618288
vn -0.785952 0.000000 -0.618288
vn 0.000000 -1.000000 0.000000
vn 0.000000 -1.000000 0.000000
vn 0.785952 0.000000 0.618288
vn 0.785952 0.000000 0.618288
vn 0.000001 1.000000 -0.000001
vn 0.000001 1.000000 -0.000001
vn -0.618287 0.000000 0.785952
vn -0.618287 0.000000 0.785952
vn -0.000000 -1.000000 0.000000
vn -0.000000 -1.000000 0.000000
vn 0.618288 0.000000 -0.785952
vn 0.618288 0.000000 -0.785952
vn -0.000000 1.000000 0.000000
vn -0.000000 1.000000 0.000000
vn 0.556423 0.000000 0.830899
vn 0.556423 0.000000 0.830899
vn 0.556423 0.000000 0.830899
vn 0.556423 0.000000 0.830899
vn 0.618287 0.000000 -0.785952
vn 0.618287 0.000000 -0.785952
vn 0.618287 0.000000 -0.785952
vn 0.618287 0.000000 -0.785952
vn -0.830898 0.000000 0.556424
vn -0.830898 0.000000 0.556424
vn -0.830898 0.000000 0.556424
vn -0.830898 0.000000 0.556424
vn 0.785952 0.000000 0.618288
vn 0.785952 0.000000 0.618288
vn 0.785952 0.000000 0.618288
vn 0.785952 0.000000 0.618288
vn 0.830899 0.000000 -0.556423
vn 0.830899 0.000000 -0.556423
vn 0.830899 0.000000 -0.556423
vn 0.830899 0.000000 -0.556423
vn -0.618288 0.000000 0.785952
vn -0.618288 0.000000 0.785952
vn -0.618288 0.000000 0.785952
vn -0.618288 0.000000 0.785952
vn -0.556423 0.000000 -0.830899
vn -0.556423 0.000000 -0.830899
vn -0.556423 0.000000 -0.830899
vn -0.556423 0.000000 -0.830899
vn -0.785952 0.000000 -0.618288
vn -0.785952 0.000000 -0.618288
vn -0.785952 0.000000 -0.618288
vn -0.785952 0.000000 -0.618288
vn -0.000001 -1.000000 0.000001
vn -0.000001 -1.000000 0.000001
vn -0.729500 0.000000 0.683981
vn -0.729500 0.000000 0.683981
vn -0.729500 0.000000 0.683981
vn -0.729500 0.000000 0.683981
vn -0.000001 1.000000 0.000001
vn -0.000001 1.000000 0.000001
vn -0.675103 0.000000 -0.737724
vn -0.675103 0.000000 -0.737724
vn -0.675103 0.000000 -0.737724
vn -0.675103 0.000000 -0.737724
vn -0.000001 -1.000000 0.000001
vn -0.000001 -1.000000 0.000001
vn 0.683981 0.000000 0.729500
vn 0.683981 0.000000 0.729500
vn 0.683981 0.000000 0.729500
vn 0.683981 0.000000 0.729500
vn -0.000001 1.000000 0.000001
vn -0.000001 1.000000 0.000001
vn -0.737724 0.000000 0.675103
vn -0.737724 0.000000 0.675103
vn -0.737724 0.000000 0.675103
vn -0.737724 0.000000 0.675103
vn 0.000001 -1.000000 -0.000001
vn 0.000001 -1.000000 -0.000001
vn 0.729500 0.000000 -0.683980
vn 0.729500 0.000000 -0.683980
vn 0.729500 0.000000 -0.683980
vn 0.729500 0.000000 -0.683980
vn 0.000001 1.000000 -0.000001
vn 0.000001 1.000000 -0.000001
vn 0.675103 0.000000 0.737724
vn 0.675103 0.000000 0.737724
vn 0.675103 0.000000 0.737724
vn 0.675103 0.000000 0.737724
vn 0.000001 -1.000000 -0.000001
vn 0.000001 -1.000000 -0.000001
vn -0.683980 0.000000 -0.729501
vn -0.683980 0.000000 -0.729501
vn -0.683980 0.000000 -0.729501
vn -0.683980 0.000000 -0.729501
vn 0.000001 1.000000 -0.000001
vn 0.000001 1.000000 -0.000001
vn 0.737724 0.000000 -0.675103
vn 0.737724 0.000000 -0.675103
vn 0.737724 0.000000 -0.675103
vn 0.737724 0.000000 -0.675103
s 1
g pPipe31
f 114/138/289 113/137/290 129/153/291 130/154/292
s off
f 210/257/293 209/258/294 211/259/295 212/260/296
s 2
f 116/140/297 115/139/298 131/155/299 132/156/300
f 202/249/301 116/140/297 132/156/300 201/247/302
s 3
f 118/142/303 117/141/304 133/157/305 134/158/306
s off
f 214/261/307 213/262/308 215/263/309 216/264/310
s 4
f 120/144/311 119/143/312 135/159/313 136/160/314
f 178/219/315 120/144/311 136/160/314 177/217/316
s 5
f 122/146/317 121/145/318 137/161/319 138/162/320
s off
f 218/265/321 217/266/322 219/267/323 220/268/324
s 6
f 124/148/325 123/147/326 139/163/327 140/164/328
f 186/229/329 124/148/325 140/164/328 185/227/330
s 7
f 126/150/331 125/149/332 141/165/333 142/166/334
s off
f 222/269/335 221/270/336 223/271/337 224/272/338
s 8
f 128/152/339 127/151/340 143/167/341 144/168/342
f 194/239/343 128/152/339 144/168/342 193/237/344
s 9
f 130/154/345 129/153/346 145/169/347 146/170/348
f 131/155/349 130/154/345 146/170/348 147/171/350
f 132/156/351 131/155/349 147/171/350 148/172/352
f 204/251/353 201/247/354 132/156/351 148/172/352
s 10
f 134/158/355 133/157/356 149/173/357 150/174/358
f 135/159/359 134/158/355 150/174/358 151/175/360
f 136/160/361 135/159/359 151/175/360 152/176/362
f 180/221/363 177/217/364 136/160/361 152/176/362
s 11
f 138/162/365 137/161/366 153/177/367 154/178/368
f 139/163/369 138/162/365 154/178/368 155/179/370
f 140/164/371 139/163/369 155/179/370 156/180/372
f 188/231/373 185/227/374 140/164/371 156/180/372
s 12
f 142/166/375 141/165/376 157/181/377 158/182/378
f 143/167/379 142/166/375 158/182/378 159/183/380
f 144/168/381 143/167/379 159/183/380 160/184/382
f 196/241/383 193/237/384 144/168/381 160/184/382
s 13
f 146/170/385 145/169/386 161/185/387 162/186/388
f 147/171/389 146/170/385 162/186/388 163/187/390
f 148/172/391 147/171/389 163/187/390 164/188/392
f 204/251/393 148/172/391 164/188/392 203/250/394
s 14
f 150/174/395 149/173/396 165/189/397 166/190/398
f 151/175/399 150/174/395 166/190/398 167/191/400
f 152/176/401 151/175/399 167/191/400 168/192/402
f 180/221/403 152/176/401 168/192/402 179/220/404
s 15
f 154/178/405 153/177/406 169/193/407 170/194/408
f 155/179/409 154/178/405 170/194/408 171/195/410
f 156/180/411 155/179/409 171/195/410 172/196/412
f 188/231/413 156/180/411 172/196/412 187/230/414
s 16
f 158/182/415 157/181/416 173/197/417 174/198/418
f 159/183/419 158/182/415 174/198/418 175/199/420
f 160/184/421 159/183/419 175/199/420 176/200/422
f 196/241/423 160/184/421 176/200/422 195/240/424
s 17
f 162/186/425 161/185/426 113/201/427 114/202/428
f 163/187/429 162/186/425 114/202/428 115/203/430
f 164/188/431 163/187/429 115/203/430 116/204/432
f 203/250/433 164/188/431 116/204/432 202/248/434
s 18
f 166/190/435 165/189/436 117/205/437 118/206/438
f 167/191/439 166/190/435 118/206/438 119/207/440
f 168/192/441 167/191/439 119/207/440 120/208/442
f 179/220/443 168/192/441 120/208/442 178/218/444
s 19
f 170/194/445 169/193/446 121/209/447 122/210/448
f 171/195/449 170/194/445 122/210/448 123/211/450
f 172/196/451 171/195/449 123/211/450 124/212/452
f 187/230/453 172/196/451 124/212/452 186/228/454
s 20
f 174/198/455 173/197/456 125/213/457 126/214/458
f 175/199/459 174/198/455 126/214/458 127/215/460
f 176/200/461 175/199/459 127/215/460 128/216/462
f 195/240/463 176/200/461 128/216/462 194/238/464
s 5
f 121/145/318 182/224/465 181/222/466 137/161/319
s 19
f 169/193/446 183/225/467 182/223/468 121/209/447
s 15
f 153/177/406 184/226/469 183/225/470 169/193/407
s 11
f 137/161/366 181/222/471 184/226/472 153/177/367
s 7
f 125/149/332 190/234/473 189/232/474 141/165/333
s 20
f 173/197/456 191/235/475 190/233/476 125/213/457
s 16
f 157/181/416 192/236/477 191/235/478 173/197/417
s 12
f 141/165/376 189/232/479 192/236/480 157/181/377
s 1
f 113/137/290 198/244/481 197/242/482 129/153/291
s 17
f 161/185/426 199/245/483 198/243/484 113/201/427
s 13
f 145/169/386 200/246/485 199/245/486 161/185/387
s 9
f 129/153/346 197/242/487 200/246/488 145/169/347
s 3
f 117/141/304 206/254/489 205/252/490 133/157/305
s 18
f 165/189/436 207/255/491 206/253/492 117/205/437
s 14
f 149/173/396 208/256/493 207/255/494 165/189/397
s 10
f 133/157/356 205/252/495 208/256/496 149/173/357
s off
f 186/229/497 185/227/498 188/231/499 187/230/500
f 182/223/501 183/225/502 184/226/503 181/222/504
f 178/219/505 177/217/506 180/221/507 179/220/508
f 206/253/509 207/255/510 208/256/511 205/252/512
f 194/239/513 193/237/514 196/241/515 195/240/516
f 198/243/517 199/245/518 200/246/519 197/242/520
f 202/249/521 201/247/522 204/251/523 203/250/524
f 190/233/525 191/235/526 192/236/527 189/232/528
s 17
f 115/139/430 114/138/428 209/258/529 210/257/530
s off
f 114/138/531 130/154/532 211/259/533 209/258/534
s 9
f 130/154/345 131/155/349 212/260/535 211/259/536
s off
f 131/155/537 115/139/538 210/257/539 212/260/540
s 18
f 119/143/440 118/142/438 213/262/541 214/261/542
s off
f 118/142/543 134/158/544 215/263/545 213/262/546
s 10
f 134/158/355 135/159/359 216/264/547 215/263/548
s off
f 135/159/549 119/143/550 214/261/551 216/264/552
s 19
f 123/147/450 122/146/448 217/266/553 218/265/554
s off
f 122/146/555 138/162/556 219/267/557 217/266/558
s 11
f 138/162/365 139/163/369 220/268/559 219/267/560
s off
f 139/163/561 123/147/562 218/265/563 220/268/564
s 20
f 127/151/460 126/150/458 221/270/565 222/269/566
s off
f 126/150/567 142/166/568 223/271/569 221/270/570
s 12
f 142/166/375 143/167/379 224/272/571 223/271/572
s off
f 143/167/573 127/151/574 222/269/575 224/272/576
