# This file uses centimeters as units for non-parametric coordinates.

g default
v -6.150491 4.590834 -9.914249
v -7.986762 4.590834 -8.580122
v -9.505524 4.590834 -6.893364
v -10.640402 4.590834 -4.927700
v -11.341796 4.590834 -2.769034
v -6.150491 13.779989 -9.914249
v -7.986762 13.779989 -8.580122
v -9.505524 13.779989 -6.893364
v -10.640402 13.779989 -4.927700
v -11.341796 13.779989 -2.769034
v -11.579049 13.779989 -0.511712
v -11.579049 4.590834 -0.511712
v 5.510746 4.590834 -10.283607
v 3.437222 4.590834 -11.206800
v 1.217066 4.590834 -11.678708
v -1.052689 4.590834 -11.678709
v -3.272845 4.590834 -11.206800
v 5.510746 13.779989 -10.283607
v 3.437222 13.779989 -11.206800
v 1.217066 13.779989 -11.678708
v -1.052689 13.779989 -11.678709
v -3.272845 13.779989 -11.206800
v -5.346370 13.779989 -10.283607
v -5.346370 4.590834 -10.283607
v 11.661238 4.590834 -0.369357
v 11.423985 4.590834 -2.626678
v 10.722589 4.590834 -4.785344
v 9.587713 4.590834 -6.751009
v 8.068952 4.590834 -8.437767
v 11.661238 13.779989 -0.369357
v 11.423985 13.779989 -2.626678
v 10.722589 13.779989 -4.785344
v 9.587713 13.779989 -6.751009
v 8.068952 13.779989 -8.437767
v 6.232680 13.779989 -9.771895
v 6.232680 4.590834 -9.771895
v 6.150491 4.590834 9.914249
v 7.986762 4.590834 8.580122
v 9.505524 4.590834 6.893364
v 10.640402 4.590834 4.927700
v 11.341796 4.590834 2.769034
v 6.150491 13.779989 9.914249
v 7.986762 13.779989 8.580122
v 9.505524 13.779989 6.893364
v 10.640402 13.779989 4.927700
v 11.341796 13.779989 2.769034
v 11.579049 13.779989 0.511712
v 11.579049 4.590834 0.511712
v -5.510746 4.590834 10.283607
v -3.437222 4.590834 11.206800
v -1.217066 4.590834 11.678708
v 1.052689 4.590834 11.678709
v 3.272845 4.590834 11.206800
v -5.510746 13.779989 10.283607
v -3.437222 13.779989 11.206800
v -1.217066 13.779989 11.678708
v 1.052689 13.779989 11.678709
v 3.272845 13.779989 11.206800
v 5.346370 13.779989 10.283607
v 5.346370 4.590834 10.283607
v -11.661238 4.590834 0.369357
v -11.423985 4.590834 2.626678
v -10.722589 4.590834 4.785344
v -9.587713 4.590834 6.751009
v -8.068952 4.590834 8.437767
v -11.661238 13.779989 0.369357
v -11.423985 13.779989 2.626678
v -10.722589 13.779989 4.785344
v -9.587713 13.779989 6.751009
v -8.068952 13.779989 8.437767
v -6.232680 13.779989 9.771895
v -6.232680 4.590834 9.771895
vt 0.200000 1.000000
vt 0.166667 1.000000
vt 0.166667 0.750000
vt 0.200000 0.750000
vt 0.233333 1.000000
vt 0.233333 0.750000
vt 0.266667 1.000000
vt 0.266667 0.750000
vt 0.300000 1.000000
vt 0.300000 0.750000
vt 0.333333 1.000000
vt 0.333333 0.750000
vt 0.200000 1.000000
vt 0.166667 1.000000
vt 0.166667 0.750000
vt 0.200000 0.750000
vt 0.233333 1.000000
vt 0.233333 0.750000
vt 0.266667 1.000000
vt 0.266667 0.750000
vt 0.300000 1.000000
vt 0.300000 0.750000
vt 0.333333 1.000000
vt 0.333333 0.750000
vt 0.200000 1.000000
vt 0.166667 1.000000
vt 0.166667 0.750000
vt 0.200000 0.750000
vt 0.233333 1.000000
vt 0.233333 0.750000
vt 0.266667 1.000000
vt 0.266667 0.750000
vt 0.300000 1.000000
vt 0.300000 0.750000
vt 0.333333 1.000000
vt 0.333333 0.750000
vt 0.200000 1.000000
vt 0.166667 1.000000
vt 0.166667 0.750000
vt 0.200000 0.750000
vt 0.233333 1.000000
vt 0.233333 0.750000
vt 0.266667 1.000000
vt 0.266667 0.750000
vt 0.300000 1.000000
vt 0.300000 0.750000
vt 0.333333 1.000000
vt 0.333333 0.750000
vt 0.200000 1.000000
vt 0.166667 1.000000
vt 0.166667 0.750000
vt 0.200000 0.750000
vt 0.233333 1.000000
vt 0.233333 0.750000
vt 0.266667 1.000000
vt 0.266667 0.750000
vt 0.300000 1.000000
vt 0.300000 0.750000
vt 0.333333 1.000000
vt 0.333333 0.750000
vt 0.200000 1.000000
vt 0.166667 1.000000
vt 0.166667 0.750000
vt 0.200000 0.750000
vt 0.233333 1.000000
vt 0.233333 0.750000
vt 0.266667 1.000000
vt 0.266667 0.750000
vt 0.300000 1.000000
vt 0.300000 0.750000
vt 0.333333 1.000000
vt 0.333333 0.750000
vn 0.669131 0.000000 0.743145
vn 0.587785 0.000000 0.809018
vn 0.587785 0.000000 0.809018
vn 0.669131 0.000000 0.743145
vn 0.809017 0.000000 0.587785
vn 0.809017 0.000000 0.587785
vn 0.913545 0.000000 0.406737
vn 0.913545 0.000000 0.406737
vn 0.978148 0.000000 0.207912
vn 0.978148 0.000000 0.207912
vn 0.994522 0.000000 0.104528
vn 0.994522 0.000000 0.104528
vn -0.309017 0.000000 0.951057
vn -0.406737 0.000000 0.913545
vn -0.406737 0.000000 0.913545
vn -0.309017 0.000000 0.951057
vn -0.104529 0.000000 0.994522
vn -0.104529 0.000000 0.994522
vn 0.104528 0.000000 0.994522
vn 0.104528 0.000000 0.994522
vn 0.309017 0.000000 0.951056
vn 0.309017 0.000000 0.951056
vn 0.406737 0.000000 0.913545
vn 0.406737 0.000000 0.913545
vn -0.978148 0.000000 0.207912
vn -0.994522 0.000000 0.104528
vn -0.994522 0.000000 0.104528
vn -0.978148 0.000000 0.207912
vn -0.913545 0.000000 0.406737
vn -0.913545 0.000000 0.406737
vn -0.809017 0.000000 0.587785
vn -0.809017 0.000000 0.587785
vn -0.669131 0.000000 0.743145
vn -0.669131 0.000000 0.743145
vn -0.587785 0.000000 0.809017
vn -0.587785 0.000000 0.809017
vn -0.669131 0.000000 -0.743145
vn -0.587785 0.000000 -0.809018
vn -0.587785 0.000000 -0.809018
vn -0.669131 0.000000 -0.743145
vn -0.809017 0.000000 -0.587785
vn -0.809017 0.000000 -0.587785
vn -0.913545 0.000000 -0.406737
vn -0.913545 0.000000 -0.406737
vn -0.978148 0.000000 -0.207912
vn -0.978148 0.000000 -0.207912
vn -0.994522 0.000000 -0.104528
vn -0.994522 0.000000 -0.104528
vn 0.309017 0.000000 -0.951057
vn 0.406737 0.000000 -0.913545
vn 0.406737 0.000000 -0.913545
vn 0.309017 0.000000 -0.951057
vn 0.104529 0.000000 -0.994522
vn 0.104529 0.000000 -0.994522
vn -0.104528 0.000000 -0.994522
vn -0.104528 0.000000 -0.994522
vn -0.309017 0.000000 -0.951056
vn -0.309017 0.000000 -0.951056
vn -0.406737 0.000000 -0.913545
vn -0.406737 0.000000 -0.913545
vn 0.978148 0.000000 -0.207912
vn 0.994522 0.000000 -0.104528
vn 0.994522 0.000000 -0.104528
vn 0.978148 0.000000 -0.207912
vn 0.913545 0.000000 -0.406737
vn 0.913545 0.000000 -0.406737
vn 0.809017 0.000000 -0.587785
vn 0.809017 0.000000 -0.587785
vn 0.669131 0.000000 -0.743145
vn 0.669131 0.000000 -0.743145
vn 0.587785 0.000000 -0.809017
vn 0.587785 0.000000 -0.809017
s 1
g polySurface156
f 2/1/1 1/2/2 6/3/3 7/4/4
f 3/5/5 2/1/1 7/4/4 8/6/6
f 4/7/7 3/5/5 8/6/6 9/8/8
f 5/9/9 4/7/7 9/8/8 10/10/10
f 12/11/11 5/9/9 10/10/10 11/12/12
s 2
f 14/13/13 13/14/14 18/15/15 19/16/16
f 15/17/17 14/13/13 19/16/16 20/18/18
f 16/19/19 15/17/17 20/18/18 21/20/20
f 17/21/21 16/19/19 21/20/20 22/22/22
f 24/23/23 17/21/21 22/22/22 23/24/24
s 3
f 26/25/25 25/26/26 30/27/27 31/28/28
f 27/29/29 26/25/25 31/28/28 32/30/30
f 28/31/31 27/29/29 32/30/30 33/32/32
f 29/33/33 28/31/31 33/32/32 34/34/34
f 36/35/35 29/33/33 34/34/34 35/36/36
s 4
f 38/37/37 37/38/38 42/39/39 43/40/40
f 39/41/41 38/37/37 43/40/40 44/42/42
f 40/43/43 39/41/41 44/42/42 45/44/44
f 41/45/45 40/43/43 45/44/44 46/46/46
f 48/47/47 41/45/45 46/46/46 47/48/48
s 5
f 50/49/49 49/50/50 54/51/51 55/52/52
f 51/53/53 50/49/49 55/52/52 56/54/54
f 52/55/55 51/53/53 56/54/54 57/56/56
f 53/57/57 52/55/55 57/56/56 58/58/58
f 60/59/59 53/57/57 58/58/58 59/60/60
s 6
f 62/61/61 61/62/62 66/63/63 67/64/64
f 63/65/65 62/61/61 67/64/64 68/66/66
f 64/67/67 63/65/65 68/66/66 69/68/68
f 65/69/69 64/67/67 69/68/68 70/70/70
f 72/71/71 65/69/69 70/70/70 71/72/72
